US-0001
	- Pre-step 1
	- Post-step 1
	- Clean up step 1

US-0002
	- Post-step 2
	- Post-step 3
	- Clean up step 2

US-0003
	- Clean up step 3
	- Clean up step 4
	- Clean up step 5

US-0004
	- Pre-step 2
	- Pre-step 3
	- Post-step 4